24
05/18/2021 14:11, XYZ structure generated by mol3D Class, molSimplify
B 	-1.637032	0.000014	-2.238648
H 	-1.095231	0.949846	-2.018806
C 	-5.683653	-1.255869	-1.678777
C 	-6.309562	-0.200502	-1.009905
C 	-5.584042	0.949275	-0.681273
C 	-4.229246	1.043401	-1.020712
C 	-3.591797	-0.012170	-1.691248
C 	-4.332328	-1.161610	-2.021088
H 	-6.245183	-2.145677	-1.933987
H 	-7.357106	-0.274107	-0.747106
H 	-6.070861	1.765377	-0.165884
H 	-3.668697	1.933067	-0.766124
H 	-3.851645	-1.979822	-2.541212
C 	1.490383	-2.860863	-1.728893
C 	0.903234	-3.948606	-1.077250
C 	-0.453972	-3.911914	-0.742972
C 	-1.225071	-2.788104	-1.058982
C 	-0.642815	-1.691185	-1.716844
C 	0.723412	-1.736728	-2.047601
H 	2.543075	-2.887874	-1.986070
H 	1.499939	-4.818524	-0.830218
H 	-0.907912	-4.754574	-0.237488
H 	-2.271340	-2.766527	-0.795360
H 	1.181960	-0.896352	-2.552013
